{
  "posts": [
    {
      "id": 1,
      "name": "Aziz",
      "description": "Master Angular"
    },
    {
      "id": 2,
      "name": "Dimas",
      "description": "Coffee Break"
    },
    {
      "id": 3,
      "name": "Godya",
      "description": "Number 1 Angular"
    }
  ],
  "users": [
    {
      "id": 1,
      "name": "Aziz",
      "email": "aziz@mandiri.co.id",
      "password": "tes123",
      "phone": "231213"
    },
    {
      "id": 2,
      "name": "Dimdim",
      "email": "dimdim@mandiri.co.id",
      "password": "res123",
      "phone": "1234"
    }
  ]
}